{
  "incoming": {
    "enabled": true,
    "twoLoEnabled": true,
    "twoLoImpersonationEnabled": true
  },
  "outgoing": {
    "enabled": true,
    "twoLoEnabled": true,
    "twoLoImpersonationEnabled": true
  }
}
